calentamiento_peru
…
rain <- per_noaa_1947_2023 |> 
    filter(city == "Lima - Callao",
           date > "1962-12-31")  |> 
    select(date, prcp) |> 
    filter(date>"1981-12-31")

df <- per_noaa_1947_2023 |> 
    filter(city == "Lima - Callao",
           date > "1962-12-31")  |> 
    select(date, tavg) |> 
    filter(date>"1981-12-31")
df

# A tibble: 14,523 × 2
   date        tavg
   <date>     <dbl>
 1 1982-01-01  21.6
 2 1982-01-02  21.9
 3 1982-01-03  20.3
 4 1982-01-04  21.7
 5 1982-01-05  22.6
 6 1982-01-06  21.5
 7 1982-01-07  21.4
 8 1982-01-08  22.1
 9 1982-01-09  20.5
10 1982-01-10  21  
# … with 14,513 more rows

Promedio por semana y promedio anual

`summarise()` has grouped output by 'year'. You can override using the
`.groups` argument.
`summarise()` has grouped output by 'year'. You can override using the
`.groups` argument.

# A tibble: 2,111 × 4
    year  week tavg_week tyear
   <dbl> <dbl>     <dbl> <dbl>
 1  1982     1      21.6  20.1
 2  1982     2      20.9  20.1
 3  1982     3      21.5  20.1
 4  1982     4      22.4  20.1
 5  1982     5      22.0  20.1
 6  1982     6      22.6  20.1
 7  1982     7      22.0  20.1
 8  1982     8      21.8  20.1
 9  1982     9      21.0  20.1
10  1982    10      21.0  20.1
# … with 2,101 more rows
…
