calentamiento_peru
…
df_week <- df %>%
  mutate(week = week(date), year = year(date)) %>%
  group_by(year, week) %>%
  summarize(tavg_week = mean(tavg)) %>%
  ungroup() %>%
  group_by(year) %>%
  mutate(tyear = mean(tavg_week)) %>%
  ungroup()

`summarise()` has grouped output by 'year'. You can override using the
`.groups` argument.

df_week

# A tibble: 2,163 × 4
    year  week tavg_week tyear
   <dbl> <dbl>     <dbl> <dbl>
 1  1981     1      21.3  19.0
 2  1981     2      21.1  19.0
 3  1981     3      21.6  19.0
 4  1981     4      21.9  19.0
 5  1981     5      22.3  19.0
 6  1981     7      23.3  19.0
 7  1981     9      24    19.0
 8  1981    10      23.8  19.0
 9  1981    11      23.3  19.0
10  1981    12      20    19.0
# … with 2,153 more rows
…
